<?xml version="1.0" encoding="UTF-8" standalone="no"?>
<!-- Created with Inkscape (http://www.inkscape.org/) -->

<svg
   xmlns:dc="http://purl.org/dc/elements/1.1/"
   xmlns:cc="http://creativecommons.org/ns#"
   xmlns:rdf="http://www.w3.org/1999/02/22-rdf-syntax-ns#"
   xmlns:svg="http://www.w3.org/2000/svg"
   xmlns="http://www.w3.org/2000/svg"
   xmlns:sodipodi="http://sodipodi.sourceforge.net/DTD/sodipodi-0.dtd"
   xmlns:inkscape="http://www.inkscape.org/namespaces/inkscape"
   width="16"
   height="16"
   id="svg5085"
   version="1.1"
   inkscape:version="0.48.5 r10040"
   sodipodi:docname="Nouveau document 2">
  <defs
     id="defs5087" />
  <sodipodi:namedview
     id="base"
     pagecolor="#ffffff"
     bordercolor="#666666"
     borderopacity="1.0"
     inkscape:pageopacity="0.0"
     inkscape:pageshadow="2"
     inkscape:zoom="5.66878"
     inkscape:cx="26.443249"
     inkscape:cy="8.0000031"
     inkscape:document-units="px"
     inkscape:current-layer="g4683"
     showgrid="false"
     fit-margin-top="0"
     fit-margin-left="0"
     fit-margin-right="0"
     fit-margin-bottom="0"
     inkscape:window-width="929"
     inkscape:window-height="782"
     inkscape:window-x="945"
     inkscape:window-y="179"
     inkscape:window-maximized="0" />
  <metadata
     id="metadata5090">
    <rdf:RDF>
      <cc:Work
         rdf:about="">
        <dc:format>image/svg+xml</dc:format>
        <dc:type
           rdf:resource="http://purl.org/dc/dcmitype/StillImage" />
        <dc:title></dc:title>
      </cc:Work>
    </rdf:RDF>
  </metadata>
  <g
     inkscape:label="Calque 1"
     inkscape:groupmode="layer"
     id="layer1"
     transform="translate(-449.14286,-638.6479)">
    <g
       style="display:inline"
       id="g4683"
       inkscape:label="view-refresh"
       transform="translate(209.14286,120.6479)">
      <rect
         transform="matrix(0,-1,1,0,0,0)"
         style="color:#bebebe;fill:none;stroke:none;stroke-width:1;marker:none;visibility:visible;display:inline;overflow:visible;enable-background:new"
         id="rect10837-5-8-4-4-2"
         y="240"
         x="-534"
         height="16"
         width="16" />
      <path
         style="font-size:medium;font-style:normal;font-variant:normal;font-weight:normal;font-stretch:normal;text-indent:0;text-align:start;text-decoration:none;line-height:normal;letter-spacing:normal;word-spacing:normal;text-transform:none;direction:ltr;block-progression:tb;writing-mode:lr-tb;text-anchor:start;baseline-shift:baseline;color:#bebebe;fill:#4d4d4d;fill-opacity:1;stroke:none;stroke-width:2;marker:none;visibility:visible;display:inline;overflow:visible;enable-background:accumulate;font-family:Sans;-inkscape-font-specification:Sans"
         d="M 12.90625,411.96875 A 1.0001,1.0001 0 0 0 12.78125,412 1.0001,1.0001 0 0 0 12,413 l 0,1.6875 c -0.382248,-0.57796 -0.84927,-1.08223 -1.40625,-1.5 -1.15563,-0.86677 -2.5319852,-1.25227 -3.875,-1.1875 -0.1918593,0.009 -0.3722275,0.0353 -0.5625,0.0625 -1.52218,0.21741 -2.97815,1.02304 -3.96875,2.34375 -1.98119,2.64144 -1.42267,6.42505 1.21875,8.40625 2.64147,1.98122 6.42504,1.42267 8.40625,-1.21875 A 1.0063276,1.0063276 0 0 0 12,421 1.0063276,1.0063276 0 0 0 12,420.84375 L 12,420 l -0.8125,0 -0.09375,0 A 1.0063276,1.0063276 0 0 0 11,420 a 1.0063276,1.0063276 0 0 0 -0.8125,0.40625 c -1.33265,1.77674 -3.81702,2.11387 -5.59375,0.78125 -1.77674,-1.33264 -2.1139,-3.81699 -0.78125,-5.59375 1.33265,-1.77674 3.817,-2.11389 5.59375,-0.78125 0.4294639,0.32212 0.769545,0.73295 1.03125,1.1875 L 9,416 a 1.0001,1.0001 0 0 0 -1,1 1.0001,1.0001 0 0 0 0,0.21875 L 8,418 8.84375,418 9,418 l 4,0 1,0 0,-1 0,-4 a 1.0001,1.0001 0 0 0 0,-0.1875 L 14,412 l -0.8125,0 a 1.0001,1.0001 0 0 0 -0.28125,-0.0312 z"
         transform="translate(240,108)"
         id="path4597"
         inkscape:connector-curvature="0" />
    </g>
  </g>
</svg>
